<svg xmlns="http://www.w3.org/2000/svg" width="232.962" height="77.643" viewBox="0 0 232.962 77.643">
  <g id="HU-logo-header" transform="translate(-181.998 -54.445)">
    <g id="Group_1471" data-name="Group 1471" transform="translate(181.998 54.445)">
      <path id="Path_1" data-name="Path 1" d="M71.986,35.585c0-.08,0-.168-.006-.243a35.991,35.991,0,0,0-71.97,0v.187C0,35.687,0,35.84,0,36v.526a1.767,1.767,0,0,1,.01.231A36.012,36.012,0,0,0,24.883,70.341a4.722,4.722,0,0,0,.986-1.779l.01-.019v-.057c.074-.356.166-.729.257-1.179l.063-.223c.449-1.858.989-3.595,1-3.622.135-.468.249-.83.346-1.072a6.519,6.519,0,0,1,.7-1.168,1.849,1.849,0,0,1,1.516-.729,2.512,2.512,0,0,1,.8.13l.5.205-.023-.528a3.73,3.73,0,0,0-.057-.534,24.108,24.108,0,0,1-6.018-2.128v-.114a24.111,24.111,0,0,1,3.712-44.477l-.034-.1a24.239,24.239,0,0,1,18.393,1.51v.109a24.122,24.122,0,0,1-3.7,44.489l.029.1A24.021,24.021,0,0,1,32.193,60c-1.336,2.776-1.579,7.384-1.579,10.291,0,.375-.026.868-.063,1.408A36.012,36.012,0,0,0,71.978,36.771c.006-.064.006-.121.006-.187,0-.155.011-.308.011-.474V36C72,35.857,71.986,35.725,71.986,35.585Z" transform="translate(0)" fill="#cda8cf"/>
      <path id="Path_2" data-name="Path 2" d="M43.03,7.93a35.037,35.037,0,0,0-10.5,68.462,5.486,5.486,0,0,0,.364-.864l.01-.019v-.057c.074-.356.166-.729.257-1.179l.063-.223c.449-1.858.989-3.595,1-3.622.135-.468.249-.83.346-1.072a6.52,6.52,0,0,1,.7-1.168,1.848,1.848,0,0,1,1.516-.729,2.511,2.511,0,0,1,.8.13l.5.205-.023-.528a3.148,3.148,0,0,0-.5-1.675l2.308.2-.011.1c-1.9,2.493-2.218,8.035-2.218,11.356,0,.1,0,.217-.007.329A35.031,35.031,0,1,0,43.03,7.93Z" transform="translate(-7.028 -6.967)" fill="#5e2568"/>
      <path id="Path_3" data-name="Path 3" d="M93.27,117.9a24.669,24.669,0,1,1,24.674,24.671A24.674,24.674,0,0,1,93.27,117.9" transform="translate(-81.942 -81.898)" fill="#cda8cf" fill-rule="evenodd"/>
      <path id="Path_4" data-name="Path 4" d="M217.861,494.376c0-3.32.315-8.866,2.218-11.356l.011-.1-2.308-.2a3.148,3.148,0,0,1,.5,1.675l.023.528-.5-.205a2.516,2.516,0,0,0-.8-.13,1.848,1.848,0,0,0-1.516.729,6.516,6.516,0,0,0-.7,1.168c-.1.243-.211.607-.346,1.072-.009.027-.548,1.764-1,3.622l-.063.223c-.091.447-.183.824-.257,1.179v.057Z" transform="translate(-187.245 -424.093)" fill="#fff" fill-rule="evenodd"/>
      <path id="Path_5" data-name="Path 5" d="M101.62,125.269a23.655,23.655,0,1,1,23.66,23.649,23.662,23.662,0,0,1-23.66-23.649" transform="translate(-89.278 -89.269)" fill="#fff" fill-rule="evenodd"/>
      <path id="Path_6" data-name="Path 6" d="M116.67,137.36a21.753,21.753,0,1,1,21.752,21.757A21.753,21.753,0,0,1,116.67,137.36" transform="translate(-102.5 -101.569)" fill="#d5c195" fill-rule="evenodd"/>
      <path id="Path_7" data-name="Path 7" d="M157.675,139.958a25.5,25.5,0,0,0-5.211,4.7l1.848.121s.607-.419.771-.013-.253.729-.253.729l-1.327.018.669.449-.949,1.2.023,1.895c0,.356.884.86.884.86a7.061,7.061,0,0,0,1.8.486c.568-.01,2.513-.3,3.74-.317s1.146,1.314,1.146,1.314a3.275,3.275,0,0,0-1.607-.64,12.886,12.886,0,0,0-3.733.106,3.17,3.17,0,0,1-1.748-.281,2.057,2.057,0,0,0,.094,2.977c.838.862,2.779.729,3.948.1a3.193,3.193,0,0,1,2.565.008,8.781,8.781,0,0,1-3.879,1.391,3.457,3.457,0,0,1-4.02-1.521,4.161,4.161,0,0,1,.978-3.25,9.881,9.881,0,0,0-.836-.91c-.209-.153-.278-1.328-.381-1.637s-.684-1.427-.684-1.427a1.671,1.671,0,0,1,.058-2.1,38.352,38.352,0,0,1,5.474-4.593,2.532,2.532,0,0,1,1.239-2.9l2.6-1.675q2.065-6.145,7.964-5.964-6.336,1.423-6.68,6.251-5.311,2.56-4.494,4.632" transform="translate(-132.813 -113.392)" fill="#5e2568" fill-rule="evenodd"/>
      <path id="Path_8" data-name="Path 8" d="M221.62,217.187l-2.572-.477a6.122,6.122,0,0,1-.987,2.224,3.78,3.78,0,0,1,3.267-1.072Z" transform="translate(-191.576 -190.39)" fill="#5e2568" fill-rule="evenodd"/>
      <path id="Path_9" data-name="Path 9" d="M234.192,219.1A18.025,18.025,0,0,0,229.6,234.6a27.993,27.993,0,0,1,3.607-12.365c.4-.771,5.521-7.87,5.521-7.87l-3.233,3.279q.258-2.328,3.14-6.506c-.486-3.673-1.6-5.9-3.384-6.669,1.414,1.521,2.247,3.886,2.469,7.1a11.487,11.487,0,0,0-3.529,7.53" transform="translate(-201.497 -179.637)" fill="#5e2568" fill-rule="evenodd"/>
      <path id="Path_10" data-name="Path 10" d="M256.36,136.668l2.1-1.057q2.186-3.851,8.61-3.817-8.177-.893-10.707,4.874" transform="translate(-225.225 -115.683)" fill="#5e2568" fill-rule="evenodd"/>
      <path id="Path_11" data-name="Path 11" d="M317.58,141.175a17.14,17.14,0,0,1,12.522,7.452q-3.855-8.445-12.522-7.452" transform="translate(-279.01 -123.937)" fill="#5e2568" fill-rule="evenodd"/>
      <path id="Path_12" data-name="Path 12" d="M315.431,162.746q1.222-5.791-1.891-6.376c1.546,1.177,1.822,2.938.85,5.267Z" transform="translate(-275.461 -137.379)" fill="#5e2568" fill-rule="evenodd"/>
      <path id="Path_13" data-name="Path 13" d="M290.2,164.97l-.069-1.579-1.423.683c.028-2.378.67-3.522,1.943-3.409q1.782.924.926,3.733c-.379.693-.834.885-1.378.578" transform="translate(-253.645 -141.145)" fill="#5e2568" fill-rule="evenodd"/>
      <path id="Path_14" data-name="Path 14" d="M354.481,167.61a9.4,9.4,0,0,1,.8,1.875s2.04-.243,4.372,2.742a6.851,6.851,0,0,0-5.175-4.615" transform="translate(-311.427 -147.254)" fill="#5e2568" fill-rule="evenodd"/>
      <path id="Path_15" data-name="Path 15" d="M366.669,191.658l-.729-2.088a5.479,5.479,0,0,1,3.447,3.135c-1.365-1.428-2.543-1.184-2.713-1.047" transform="translate(-321.496 -166.546)" fill="#5e2568" fill-rule="evenodd"/>
      <path id="Path_16" data-name="Path 16" d="M337,173.9a12.526,12.526,0,0,1,2.4,7.359c.112,4.654.867,6.383,2.012,8.462-1.076-3.432-.486-6.379-.452-8.808s-1.9-5.385-3.957-7.013" transform="translate(-296.071 -152.779)" fill="#5e2568" fill-rule="evenodd"/>
      <path id="Path_17" data-name="Path 17" d="M380.24,219a12.322,12.322,0,0,1,.266,5.939,10.15,10.15,0,0,0,1.051,7.184c.9,1.737,2.319,2.813,2.945.8a6.321,6.321,0,0,0-.723-5.168,4.012,4.012,0,0,1-1.246,5.066c-.7-1.144-.561-2.429-.527-4.688s.557-5.963-1.766-9.13" transform="translate(-334.059 -192.402)" fill="#5e2568" fill-rule="evenodd"/>
      <path id="Path_18" data-name="Path 18" d="M335.329,308.26c.024-.41.046-.921.024-1.533-3.386-3.861-2.082-10.528-2.082-10.528a14.365,14.365,0,0,0,1.319,11.174,9.753,9.753,0,0,0,.738.888" transform="translate(-292.267 -260.226)" fill="#5e2568" fill-rule="evenodd"/>
      <path id="Path_19" data-name="Path 19" d="M371.878,230.858c-2.842-2.923-2.5-4.858-2.5-4.858-.729,3.816,1.073,5.2,2.333,6.834s2.77,3.4,2.491,5.968c-1.479,7.909-5.745,9-8.4,7.53a5.8,5.8,0,0,1-.176,1.408c1.777,1.132,4.3,1.376,7.287-2.248,4.513-5.483,1.8-11.725-1.042-14.635" transform="translate(-321.224 -198.552)" fill="#5e2568" fill-rule="evenodd"/>
      <path id="Path_20" data-name="Path 20" d="M364.72,321.32s-.618.526-.276,2.57.417,4.681-1.384,4.3c0,0,.729,1.874,1.7,1.106s1.007-2.363.516-3.777a10.465,10.465,0,0,1-.556-4.2" transform="translate(-318.965 -282.295)" fill="#5e2568" fill-rule="evenodd"/>
      <path id="Path_21" data-name="Path 21" d="M346.685,353.091s-.546.7-.508,3.43-.153,3.63-1.448,2.793c0,0,.271,2.243,1.246,1.785s1.476-2.614,1.214-3.98-.89-2.608-.51-4.03" transform="translate(-302.862 -310.207)" fill="#5e2568" fill-rule="evenodd"/>
      <path id="Path_22" data-name="Path 22" d="M308.442,381.49a16.79,16.79,0,0,0-.393,3.17c-.027,1.644-.828,3.4-2.216,3.744s-1.806-.85-1.6-1.68c0,0-.881,3.1,1.76,3.328,2.014.162,3.143-2.408,2.841-4.632a23.739,23.739,0,0,1-.389-3.93" transform="translate(-267.157 -335.158)" fill="#5e2568" fill-rule="evenodd"/>
      <path id="Path_23" data-name="Path 23" d="M262.833,309.965s1.257,9.525-3.074,13.533c-2.036,1.886-4.818,1.374-3.912-3.81,0,0-1.787,6.7,2.128,6.348s6.479-8.38,4.858-16.077" transform="translate(-224.417 -272.315)" fill="#5e2568" fill-rule="evenodd"/>
      <path id="Path_24" data-name="Path 24" d="M243.826,390.9s-2.272,3.866-.486,7.141a1.9,1.9,0,0,0,2.551.53c-1.369,1.473-2.976,1.126-3.742-.431-1.116-2.3.537-6.1,1.684-7.24" transform="translate(-212.414 -343.424)" fill="#5e2568" fill-rule="evenodd"/>
      <path id="Path_25" data-name="Path 25" d="M330.341,227.478s3.472,7.338.166,13.463a14.479,14.479,0,0,0-.44-11.432s.011-.214-.3.171c-.249.324-.66,1.008-.989.379s1.244-3.222,1.567-2.581" transform="translate(-288.804 -199.762)" fill="#5e2568" fill-rule="evenodd"/>
      <path id="Path_26" data-name="Path 26" d="M410.62,207.14s3.182,2.62,3.717,10.643c0,0-.338-5.241-3.411-8.425a6.926,6.926,0,0,0,.586,3.484c.254.228.422-1.066.281-1.807.679,1.527.735,2.727.232,2.933s-1.962-2.374-1.405-6.828" transform="translate(-360.639 -181.982)" fill="#5e2568" fill-rule="evenodd"/>
      <path id="Path_27" data-name="Path 27" d="M280.58,367.689a12.776,12.776,0,0,0,1.168-1.389c.08,2.672-.027,3.358-1.678,5.55a6.321,6.321,0,0,0,.51-4.161" transform="translate(-246.055 -321.812)" fill="#5e2568" fill-rule="evenodd"/>
      <path id="Path_28" data-name="Path 28" d="M254.8,331.538c.192-.395,1.9-1.2,2.7-.121.307.521-2.4,4.752-6.426,6.485a15.427,15.427,0,0,0,4.508-4.737c.664-1.177-1.2-.828-.783-1.632" transform="translate(-220.586 -290.691)" fill="#5e2568" fill-rule="evenodd"/>
      <path id="Path_29" data-name="Path 29" d="M218.3,556.964c.53-.214.621.045-.175.348-5.069,1.953-10.792,1.814-15.893.738a74.974,74.974,0,0,1-11.141-3.123l.486-1.078s26.083,3.375,26.719,3.114" transform="translate(-167.881 -486.584)" fill="#deca95" fill-rule="evenodd"/>
      <path id="Path_30" data-name="Path 30" d="M206.221,479.022l.338-.782c.521.251,5.554,2.718,8.259,3.644,5.836,2.009,11.159,3.3,15.007,3.3a30.288,30.288,0,0,0,5.477-.458,20.689,20.689,0,0,0,4.2-1.229,10.818,10.818,0,0,0,2.9-2.64c.333-.423.607-.681.626-.446.374,3.441-3.669,5.766-9.338,6.5-5.762.748-11.278-1.876-16.639-3.086a27.421,27.421,0,0,1-10.826-4.8" transform="translate(-181.174 -420.157)" fill="#cda8cf" fill-rule="evenodd"/>
      <path id="Path_31" data-name="Path 31" d="M206.23,481.6l.4-.64c.525.243,5.488,2.569,8.192,3.5,5.836,2.01,11.159,3.3,15.007,3.3a29.534,29.534,0,0,0,5.477-.464,19.546,19.546,0,0,0,5.72-1.943c.266-.1-.061.268-.18.375-1.636,1.474-5.546,2.51-7.377,2.741-5.769.739-11.058-.85-16.417-2.076A27.337,27.337,0,0,1,206.23,481.6" transform="translate(-181.183 -422.547)" fill="#deca95" fill-rule="evenodd"/>
      <path id="Path_32" data-name="Path 32" d="M224.891,493.287l.407.616s.165.191-1.3,1.391a23.751,23.751,0,0,1-5.235,3.457c-5.086,1.844-10.506,1.482-15.8.281a61.25,61.25,0,0,1-11.04-3.476l2.464-8.034a77.672,77.672,0,0,0,7.644,3.447c5.893,2.022,9.473,3.167,15.214,3.216a24.6,24.6,0,0,0,7.651-.9" transform="translate(-168.611 -428.31)" fill="#cda8cf" fill-rule="evenodd"/>
      <path id="Path_33" data-name="Path 33" d="M208.553,503.072c5.974,2.052,9.662,3.232,15.534,3.269,5.3.051,7.118-.763,7.118-.763a23.917,23.917,0,0,1-6.2,4.087c-3.8,1.413-10.009,1.312-15.181.075a77.233,77.233,0,0,1-10.1-3.074l2.065-6.626a59.792,59.792,0,0,0,6.772,3.036" transform="translate(-175.464 -439.31)" fill="#deca95" fill-rule="evenodd"/>
      <path id="Path_34" data-name="Path 34" d="M264.574,473.88s-3.4,1.833-3.306,12.676c.037,4.391,1.131,6.384,1.131,6.384l-5.38-3.438-5.318,3.461s.576-4.51.576-6.348.075-9.7,2.719-11.685a.35.35,0,0,1,.3-.1,21.269,21.269,0,0,0,9.28-.946" transform="translate(-221.131 -416.326)" fill="#deca95" fill-rule="evenodd"/>
      <path id="Path_35" data-name="Path 35" d="M246.78,490.438l.079-1.057c.015-.122.565-4.51.565-6.3,0-3.686.381-10.124,2.9-12.074a.875.875,0,0,1,.6-.233h.092l.17.022c.517.044,1.4.121,2.509.121a18.2,18.2,0,0,0,6.37-1.054l.429.946c-.023.015-3.423,1.671-3.373,11.938.041,5.039.633,4.8.85,5.77l.679,1.874-5.962-3.805Zm5.918-4.644,4.694,2.787a11.489,11.489,0,0,1-.972-5.548c-.049-6.61,1.183-9.983,2.23-11.639a21.118,21.118,0,0,1-4.953.561h0c-1.151,0-2.057-.082-2.6-.121l-.121-.015c-1.57,1.193-2.486,5.4-2.735,11.248-.089,2.132-.364,2.824-.623,5.941Z" transform="translate(-216.808 -412.795)" fill="#cda8cf"/>
      <path id="Path_36" data-name="Path 36" d="M269.137,496.064l-3.607,2.389.021-.243a18.146,18.146,0,0,0,.26-3.4c0-5.748.91-9.8,2.551-11.417l.158.167c-1.6,1.568-2.481,5.564-2.481,11.246a16.026,16.026,0,0,1-.237,3.186l3.336-2.2,3.5,2.308c-.6-1.634-.864-1.512-.85-3.346.07-4.9.618-8.9,1.889-11.547l.205.1c-1.257,2.617-1.895,6.57-1.852,11.447.01,1.447.486,2.308,1.12,4.3Z" transform="translate(-233.281 -424.523)" fill="#cda8cf"/>
      <path id="Path_37" data-name="Path 37" d="M171.233,485.664c.089-.395.176-.8.277-1.192a.8.8,0,0,1,.056-.243c.457-1.891,1-3.632,1-3.632.128-.442.249-.841.356-1.113a7.784,7.784,0,0,1,.742-1.247,2.429,2.429,0,0,1,2.721-.7c-.057-1.755-1.336-2.772-3.318-2.61s-2.672,2.4-2.707,3.459-1.251,1.661-1.921,2.146c-.691.475-1.513.551-1.952,1.04-.462.486.6,1.406,1.614,1.029l.8-.306a6.376,6.376,0,0,1-.938,2.64,2.015,2.015,0,0,1-2.127.543s-.183,2.888,2.5,2.806a3.239,3.239,0,0,0,2.893-2.593v-.029" transform="translate(-145.697 -417.233)" fill="#deca95" fill-rule="evenodd"/>
      <path id="Path_38" data-name="Path 38" d="M165.765,486.187h0a2.569,2.569,0,0,1-1.943-.757,3.517,3.517,0,0,1-.779-2.419l.024-.446.431.137a2.06,2.06,0,0,0,.6.089,1.345,1.345,0,0,0,1.131-.51,5.107,5.107,0,0,0,.761-1.89l-.216.09a1.812,1.812,0,0,1-.624.121,1.675,1.675,0,0,1-1.5-.858.756.756,0,0,1,.114-.84,2.971,2.971,0,0,1,1.134-.662,4.422,4.422,0,0,0,.893-.436,4.3,4.3,0,0,1,.364-.243c.617-.41,1.375-.923,1.4-1.625.04-1.159.837-3.606,3.025-3.79.143-.009.3-.018.434-.018a2.953,2.953,0,0,1,3.266,2.969l.023.528-.5-.205a2.515,2.515,0,0,0-.8-.13,1.849,1.849,0,0,0-1.516.729,6.494,6.494,0,0,0-.7,1.17c-.1.243-.211.607-.346,1.071-.009.027-.548,1.763-1,3.622l-.063.223c-.091.447-.183.824-.257,1.179v.057l-.01.019c-.564,1.778-1.706,2.786-3.217,2.836Zm-2.022-2.73a2.576,2.576,0,0,0,.588,1.5,1.849,1.849,0,0,0,1.434.535h.1a2.9,2.9,0,0,0,2.57-2.308v-.033c.079-.364.165-.748.268-1.188a1.179,1.179,0,0,1,.068-.3c.455-1.861,1-3.6,1-3.617.141-.486.259-.871.364-1.137l.012-.022a7.232,7.232,0,0,1,.783-1.31,2.55,2.55,0,0,1,2.065-.987,3,3,0,0,1,.538.045,2.3,2.3,0,0,0-2.531-1.822c-.109,0-.243,0-.375.011-1.734.149-2.357,2.172-2.393,3.131-.021,1.055-.993,1.7-1.7,2.173-.136.081-.243.16-.355.234a4.436,4.436,0,0,1-1.038.515,2.473,2.473,0,0,0-.867.486c-.007.008-.021.027,0,.092a1.023,1.023,0,0,0,.873.446,1.092,1.092,0,0,0,.375-.067l1.326-.519-.068.57a6.712,6.712,0,0,1-1,2.819,2.03,2.03,0,0,1-1.686.788A1.876,1.876,0,0,1,163.742,483.457Z" transform="translate(-143.235 -414.789)" fill="#cda8cf"/>
      <path id="Path_39" data-name="Path 39" d="M288.444,499.333l-.714-.256V496.89h.106a9.47,9.47,0,0,0,1.431,1.362,1.835,1.835,0,0,0,1.015.395.809.809,0,0,0,.578-.221.685.685,0,0,0,.222-.51.864.864,0,0,0-.152-.492,1.053,1.053,0,0,0-.474-.329V497a1.2,1.2,0,0,1,.771.346.957.957,0,0,1,.272.706,1.045,1.045,0,0,1-.284.746.916.916,0,0,1-.693.306,1.327,1.327,0,0,1-.55-.132,3.679,3.679,0,0,1-.941-.653c-.494-.454-.783-.729-.893-.85v.972a2.147,2.147,0,0,0,.025.411.694.694,0,0,0,.084.214.573.573,0,0,0,.2.163Z" transform="translate(-252.785 -436.542)" fill="#5e2568"/>
      <path id="Path_40" data-name="Path 40" d="M285.2,521.156a2.822,2.822,0,0,1,1.085.2,1.58,1.58,0,0,1,.677.512.912.912,0,0,1,.18.507.986.986,0,0,1-.437.765,2.337,2.337,0,0,1-1.464.415,2.959,2.959,0,0,1-1.093-.177,1.373,1.373,0,0,1-.644-.476.933.933,0,0,1-.211-.558,1.009,1.009,0,0,1,.621-.871A2.567,2.567,0,0,1,285.2,521.156Zm-.072.537a3.429,3.429,0,0,0-1.243.189c-.277.106-.413.254-.413.465a.453.453,0,0,0,.136.3.787.787,0,0,0,.443.243,5.309,5.309,0,0,0,1.32.121,3.6,3.6,0,0,0,1.054-.131.942.942,0,0,0,.443-.256.4.4,0,0,0,.092-.267.437.437,0,0,0-.168-.334,1.405,1.405,0,0,0-.717-.264,5.913,5.913,0,0,0-.955-.067Z" transform="translate(-248.884 -457.86)" fill="#5e2568"/>
      <path id="Path_41" data-name="Path 41" d="M285.494,547.29l.437.9v.086h-3.125a1.462,1.462,0,0,0-.381.028.186.186,0,0,0-.121.108.8.8,0,0,0-.04.333h-.1v-1.388h.1a.8.8,0,0,0,.04.336.242.242,0,0,0,.1.1,1.422,1.422,0,0,0,.4.028h2.006a3.2,3.2,0,0,0,.519-.023.214.214,0,0,0,.121-.069.241.241,0,0,0,.043-.121.618.618,0,0,0-.092-.277Z" transform="translate(-247.892 -480.821)" fill="#5e2568"/>
      <path id="Path_42" data-name="Path 42" d="M278.141,566.651h-.393v-.5h-.978V565.7h.978V564.14h.351l2.446,1.711v.3h-2.4Zm0-.945h1.822l-1.822-1.3Z" transform="translate(-243.156 -495.625)" fill="#5e2568"/>
      <path id="Path_43" data-name="Path 43" d="M35.267,73.263a2.878,2.878,0,0,1-.356.163l-.434-.542c-.061-.063-.136-.137-.233-.225l-1.224.607c-.42.243-.729.435-.951.548l-.121.061c-.136.06-.464.243-.991.532l-.121.085-.413.2-.407.243-.206.121a6.478,6.478,0,0,0-.625.392.676.676,0,0,0-.1.106.664.664,0,0,0,.026.1c.017.027.027.069.044.1a3.68,3.68,0,0,0,.174.431l.019.086a1.293,1.293,0,0,1,.074.214.7.7,0,0,1-.175.1.414.414,0,0,1-.171.061c-.04-.052-.1-.146-.166-.254s-.108-.2-.136-.236c-.17-.413-.315-.713-.413-.9-.056-.084-.09-.171-.142-.262a2.253,2.253,0,0,0-.121-.243c-.053-.107-.206-.355-.469-.743a1.082,1.082,0,0,1-.135-.2,3.143,3.143,0,0,1-.154-.306.729.729,0,0,0,.14-.09c.062-.019.128-.052.215-.086l.6.78a.163.163,0,0,0,.193.022l.165-.107.084-.046.205-.108.166-.089.036-.015a.121.121,0,0,1,.083-.055l.607-.334c.056-.034.095-.064.13-.08l.151-.077c.052-.019.112-.053.166-.08s.158-.1.327-.2c-.03-.1-.066-.183-.087-.243l-.389-.718-.193-.342-.47-.866-.486-.823a2.034,2.034,0,0,0-.226-.328c-.113.055-.38.194-.806.425l-.217.1-.8.472-.3.233a.163.163,0,0,0-.032.106,3.45,3.45,0,0,0,.148.764,1.894,1.894,0,0,1,.043.2,1.144,1.144,0,0,1-.291.114.391.391,0,0,1-.074-.121l-.254-.458a6.748,6.748,0,0,0-.438-.929c-.035-.074-.068-.121-.091-.168l-.364-.607a.746.746,0,0,0-.1-.154,1.836,1.836,0,0,1-.232-.333c-.05-.091-.1-.2-.162-.335a2.881,2.881,0,0,1,.345-.168c.223.257.374.43.442.5a1.792,1.792,0,0,0,.264.2l.1-.025.1-.043.108-.072.069-.032a1.122,1.122,0,0,0,.159-.066l.121-.068c.136-.08.217-.129.236-.142l.607-.336.445-.26.607-.323c.148-.074.424-.243.85-.486l.678-.384.561-.309c.106-.067.232-.121.386-.2a1.164,1.164,0,0,0-.057-.215,3.941,3.941,0,0,1-.176-.78l.334-.2c.068.128.113.2.121.223a6.006,6.006,0,0,1,.267.538,12.222,12.222,0,0,0,.656,1.278,9.917,9.917,0,0,0,.616.978.544.544,0,0,1,.063.181,1.456,1.456,0,0,1-.342.134l-.285-.319-.262-.341a1.613,1.613,0,0,1-.121-.121,13.953,13.953,0,0,0-1.307.661l-.421.2a4.889,4.889,0,0,1-.578.377,3.584,3.584,0,0,0,.185.386l1.215,2.227.017.052.01.03a.421.421,0,0,1,.046.074c.05.079.089.153.129.21l.068.135a.729.729,0,0,0,.151.183l.364-.177.061-.03a1.431,1.431,0,0,1,.158-.1l1.477-.821c.08-.047.164-.1.243-.153l.008-.056-.283-.776c-.015-.044-.019-.07-.025-.087a.276.276,0,0,1-.007-.135c.061-.052.111-.084.131-.1l.185-.075c.064.121.121.211.165.294s.07.142.106.2a.678.678,0,0,1,.034.09l.356.686c.074.166.188.4.345.679l.062.106c.086.13.13.2.145.221C34.846,72.543,35.027,72.843,35.267,73.263Zm-4.608-8.771a4.868,4.868,0,0,0-.182-.742l-.079-.211c-.074-.857-.131-1.391-.158-1.613a.7.7,0,0,0-.13.011c-.053.012-.136.023-.264.049v.391a1.022,1.022,0,0,1-.066.5.251.251,0,0,1-.193.108,1.182,1.182,0,0,1-.4-.046c-.7-.131-1.153-.216-1.344-.272l-.318-2.053.993-.594.486-.3a.418.418,0,0,1,.145-.05.184.184,0,0,1,.121.034.972.972,0,0,1,.152.3l.228.577a2.14,2.14,0,0,0,.364-.039l-.047-.261-.189-.91c-.03-.121-.069-.332-.112-.607-.038-.257-.072-.542-.1-.874s-.053-.618-.094-.881a.928.928,0,0,0-.121.013c-.052.011-.146.034-.262.068a2.081,2.081,0,0,0-.04.5.737.737,0,0,1-.062.336.993.993,0,0,1-.243.206,5.935,5.935,0,0,1-.647.4c-.321.186-.554.322-.706.418-.267.169-.607.375-1.02.607s-.85.5-1.278.785l-2.068,1.286-.091.063.028.243c.023.108.041.222.066.344l3.552.744,3.024.634a.981.981,0,0,1,.346.177,1.579,1.579,0,0,1,.215.486c.064.162.114.278.143.341l.377-.049ZM27.25,62.549c-.121-.85-.2-1.336-.222-1.489l-.022-.13c-.313.154-.657.352-1.059.59s-.692.432-.907.578Zm2.368-7.5c.044-.544.092-1,.151-1.393l.152-.915a6.633,6.633,0,0,0,.07-.923,3.955,3.955,0,0,0-.145-1,1.983,1.983,0,0,0-.413-.713,1.323,1.323,0,0,0-.486-.407,2.234,2.234,0,0,0-.729-.243,1.593,1.593,0,0,0-1.147.267,2.22,2.22,0,0,0-.85,1.153,4.167,4.167,0,0,0-.261-.744,1.63,1.63,0,0,0-.411-.513,1.336,1.336,0,0,0-.577-.227,1.959,1.959,0,0,0-.576.018,1.29,1.29,0,0,0-.52.243,1.378,1.378,0,0,0-.419.419,2.131,2.131,0,0,0-.243.415,3.662,3.662,0,0,0-.254.882l-.046.342c-.03.155-.035.243-.044.283a.673.673,0,0,0-.01.132l-.027.209-.191,1.773L22.5,55.323l.386.04c.077-.278.121-.453.142-.522a.6.6,0,0,1,.111-.312c.023-.022.035-.04.058-.045a1.463,1.463,0,0,1,.511.018c1.012.121,1.634.193,1.879.227l2.3.311a5.682,5.682,0,0,1,.881.172.971.971,0,0,1,.232.13,2.768,2.768,0,0,1,.057.584c0,.121,0,.23,0,.317l.436.078c.074-.707.114-1.122.128-1.279Zm-3.874-1.808a4.935,4.935,0,0,0,.1-.508,2.14,2.14,0,0,0-.121-1.273,1.17,1.17,0,0,0-.972-.559,1.129,1.129,0,0,0-.924.271,1.8,1.8,0,0,0-.516,1.136c-.01.153-.022.364-.022.607.086.018.2.032.358.049.312.025.735.079,1.292.152l.458.085a2.775,2.775,0,0,1,.346.038Zm3.45.406a1.746,1.746,0,0,0,.243-.636,2.237,2.237,0,0,0-.045-1.029,1.253,1.253,0,0,0-.438-.642,1.96,1.96,0,0,0-.814-.3,1.717,1.717,0,0,0-.865.075,1.4,1.4,0,0,0-.673.577,3.158,3.158,0,0,0-.3,1.131,1.12,1.12,0,0,0-.017.477l.661.087.8.137,1.246.158A.7.7,0,0,0,29.194,53.643Zm1.782-5.61c.109-.351.2-.621.261-.8l.383-.89c.2-.387.311-.6.336-.645a.736.736,0,0,0,.067-.121,1.335,1.335,0,0,1,.066-.187.455.455,0,0,1,.039-.108.982.982,0,0,0-.175-.07,1.24,1.24,0,0,0-.259-.084c-.1.165-.154.266-.172.289a3.061,3.061,0,0,1-.319.531.258.258,0,0,1-.121-.033l-.192-.074-1.017-.409-.666-.287-1.336-.536c-.311-.121-.744-.3-1.31-.544a3.708,3.708,0,0,1-.364-.121,2.1,2.1,0,0,1-.364-.189,2.666,2.666,0,0,1,.047-.486c.026-.187.044-.364.051-.516-.086-.04-.166-.074-.219-.1l-.16-.052c-.024.067-.074.222-.159.468-.148.453-.262.783-.345.972-.018.044-.07.157-.151.332l-.635,1.431.442.169c.025-.041.052-.106.083-.169a2.337,2.337,0,0,1,.4-.633,1.378,1.378,0,0,1,.181.032l.22.077.587.22.262.121.67.26c.021.006.364.158,1.023.446l.281.106,1.148.474.6.243a.864.864,0,0,1,.39.262,2.04,2.04,0,0,1-.024.564c-.028.171-.04.3-.053.373l.374.148c.021-.064.068-.215.135-.448Zm2.3-5.024c.3-.459.551-.85.787-1.166l.56-.729a5.982,5.982,0,0,0,.5-.791,4.437,4.437,0,0,0,.338-.934,2.345,2.345,0,0,0-.028-.832,1.507,1.507,0,0,0-.243-.588,2.716,2.716,0,0,0-.527-.554,1.62,1.62,0,0,0-1.147-.3,2.3,2.3,0,0,0-1.291.619,5.84,5.84,0,0,0,.121-.786,1.579,1.579,0,0,0-.131-.645,1.336,1.336,0,0,0-.4-.47,1.592,1.592,0,0,0-.505-.255,1.423,1.423,0,0,0-.568-.043,1.8,1.8,0,0,0-.568.185,3.332,3.332,0,0,0-.408.255,3.23,3.23,0,0,0-.632.658l-.205.284c-.1.121-.151.2-.176.234a.432.432,0,0,0-.075.107l-.121.175-1.008,1.472-.695,1,.328.22.372-.4a.7.7,0,0,1,.243-.225.108.108,0,0,1,.08-.013,2.6,2.6,0,0,1,.441.253c.833.578,1.353.936,1.538,1.081l1.89,1.352a8.152,8.152,0,0,1,.7.57.957.957,0,0,1,.14.219,2.109,2.109,0,0,1-.223.543c-.052.111-.1.211-.135.29l.346.261c.384-.573.623-.932.7-1.054ZM30.7,39.588a3.386,3.386,0,0,0,.324-.4,2.185,2.185,0,0,0,.486-1.183,1.182,1.182,0,0,0-.6-.95,1.123,1.123,0,0,0-.935-.2,1.782,1.782,0,0,0-.99.761,5.873,5.873,0,0,0-.306.53c.069.055.165.114.289.206.262.17.621.411,1.061.741l.364.281C30.467,39.425,30.56,39.491,30.7,39.588Zm2.858,1.992a1.669,1.669,0,0,0,.5-.452,2.275,2.275,0,0,0,.446-.928,1.153,1.153,0,0,0-.087-.775,1.788,1.788,0,0,0-.581-.646,1.564,1.564,0,0,0-.8-.333,1.382,1.382,0,0,0-.862.189,3.512,3.512,0,0,0-.8.85,1.579,1.579,0,0,0-.243.413l.543.393.652.486,1.021.723a.537.537,0,0,0,.2.079Zm5.65-13.564q.587-.233.763-.121a3.492,3.492,0,0,1,.511.918l1.049,2.376a7.41,7.41,0,0,0,.544,1.027,2.153,2.153,0,0,0,.78.7,2.118,2.118,0,0,0,1.077.169,3.95,3.95,0,0,0,1.419-.38,4.439,4.439,0,0,0,1.115-.684,2.793,2.793,0,0,0,.676-.769,2.082,2.082,0,0,0,.27-.791,1.789,1.789,0,0,0-.041-.627,9.746,9.746,0,0,0-.539-1.393l-.5-.991c-.114-.243-.232-.486-.346-.715a1.025,1.025,0,0,1-.1-.2,2.886,2.886,0,0,1-.121-.276c-.09-.2-.165-.344-.209-.425a1.715,1.715,0,0,1-.134-.256.236.236,0,0,1-.016-.211,1.724,1.724,0,0,1,.341-.234,2,2,0,0,0,.364-.233.364.364,0,0,0-.045-.142.782.782,0,0,0-.121-.214l-.087.024a8.769,8.769,0,0,1-.907.453l-.972.381-.395.171.159.39.073-.016.46-.217a.622.622,0,0,1,.44,0c.087.034.176.152.279.347l.138.243c.54.972.986,1.852,1.336,2.657a4.32,4.32,0,0,1,.364,1.065,2.437,2.437,0,0,1-.027.624,1.009,1.009,0,0,1-.175.418,1.6,1.6,0,0,1-.353.435,3.9,3.9,0,0,1-.839.519,1.959,1.959,0,0,1-.913.157,1.263,1.263,0,0,1-.635-.214,2.116,2.116,0,0,1-.644-.8l-.617-1.215-.364-.877-.2-.386-.2-.471-.089-.18c-.034-.063-.074-.146-.121-.251a2.019,2.019,0,0,1-.211-.621.54.54,0,0,1,.329-.276,4.144,4.144,0,0,0,.557-.294l-.01-.038-.141-.29-.034-.066a3.221,3.221,0,0,1-.4.182c-.2.091-.417.2-.664.329s-.513.243-.776.357c-.079.035-.341.142-.789.311-.181.075-.364.148-.532.221-.061.033-.121.06-.186.094L39,28.1A.972.972,0,0,0,39.206,28.016Zm11.348-3.942a1.263,1.263,0,0,1,.434.273.486.486,0,0,1,.131.217,2.97,2.97,0,0,1,.111.871l.061,1.109.055,1.766v.313c0,.121.015.476,0,1.057,0,.2-.016.321-.08.364a1.3,1.3,0,0,1-.537.089h-.215a1.567,1.567,0,0,0-.253.03v.2c0,.066.016.136.016.222a.933.933,0,0,0,.191.016l.313-.029c.193-.019.579-.05,1.157-.079.619.041.993.06,1.106.05l.215-.015-.04-.457a1.093,1.093,0,0,0-.145-.032,4.4,4.4,0,0,1-.928-.084c-.033-.074-.057-.131-.074-.164a1.6,1.6,0,0,1-.026-.2c-.046-.347-.079-.667-.1-.964l-.061-.709V27.53c0-.131,0-.253-.012-.376l-.128-2.025.915.774c.378.315.8.686,1.262,1.106l.7.679.953.894,1.368,1.267.683.651.621-.045-.015-.291c0-.029-.011-.121-.03-.265l.01-.293-.029-.288-.023-.667a2.221,2.221,0,0,0-.017-.294l-.121-1.91c0-.121-.021-.234-.025-.328-.039-.307-.066-.729-.089-1.252-.009-.243-.021-.391-.021-.459-.017-.135-.023-.208-.023-.231a.334.334,0,0,1,.044-.2,2.773,2.773,0,0,1,.276-.209,2.345,2.345,0,0,1,.4-.121.808.808,0,0,0,.243-.109l-.021-.355c-.07,0-.138.006-.227.013l-1.181.078-1.075.066-.13.024v.322a1.7,1.7,0,0,0,.446.112,1,1,0,0,1,.538.165c.053.047.08.187.09.424,0,.078.041.35.094.82a7.419,7.419,0,0,1,.061.817c.023.3.044.561.067.776s.047.513.072.883l.041.63v.136c-2.288-2.13-3.614-3.364-3.982-3.723s-.84-.783-1.423-1.272h-.17c-.039,0-.137.008-.336.026s-.3.019-.333.026a.862.862,0,0,1-.121-.006c-.217,0-.333.006-.385.006-.078,0-.243.011-.453.032h-.154l-.476.024.04.381a4.043,4.043,0,0,1,.748.132Zm10.17,6.719c.364.057.64.1.832.147l.936.243c.41.14.634.232.685.25a.931.931,0,0,0,.134.049c.012,0,.094.015.2.039a.606.606,0,0,1,.1.018c.027-.079.04-.136.058-.18a2.093,2.093,0,0,0,.038-.268c-.17-.073-.278-.112-.3-.131a4.007,4.007,0,0,1-.576-.243.364.364,0,0,1,.019-.121l.05-.206.255-1.059.189-.7.345-1.4c.075-.324.2-.776.358-1.369.013-.1.044-.221.075-.381a2.34,2.34,0,0,1,.121-.392c.121,0,.293-.018.486-.011s.364-.007.523-.015c.025-.1.047-.177.066-.243a1.032,1.032,0,0,0,.035-.165c-.07-.017-.23-.044-.486-.089-.469-.091-.806-.155-1.012-.208l-.352-.1-1.491-.445-.1.477a.992.992,0,0,0,.18.061,2.186,2.186,0,0,1,.683.307,1.172,1.172,0,0,1,0,.176l-.056.233-.128.607-.085.278-.174.706c0,.022-.1.379-.3,1.076l-.073.287-.3,1.2-.155.632a1.024,1.024,0,0,1-.208.426,2.114,2.114,0,0,1-.57.056H60.36l-.1.381ZM67.732,25.8a1.776,1.776,0,0,1,.381.306.619.619,0,0,1,.1.272c0,.056-.012.46-.057,1.2l-.147,1.6-.181,2.526c-.084.729-.13,1.143-.154,1.262s-.034.232-.047.349a2.063,2.063,0,0,0,.259.142,1.287,1.287,0,0,0,.243.121c.162-.136.434-.395.817-.772l.1-.061c.3-.266.486-.418.53-.459.18-.165.364-.315.511-.449a5.735,5.735,0,0,0,.454-.391L72,30.191a13.86,13.86,0,0,1,1.242-1.006.729.729,0,0,1,.223-.091,5.161,5.161,0,0,1,.89.087.883.883,0,0,0,.09-.179l.092-.155c-.121-.056-.289-.121-.486-.206a5.976,5.976,0,0,1-.706-.322c-.264-.145-.52-.294-.783-.47s-.425-.274-.477-.3a1.847,1.847,0,0,0-.137.213.607.607,0,0,0-.047.17c.047.038.114.074.18.121a1,1,0,0,1,.163.121,1.05,1.05,0,0,1,.384.379.205.205,0,0,1,.016.21,1.256,1.256,0,0,1-.278.321c-.132.121-.318.3-.56.536a2.178,2.178,0,0,1-.166.172l-.323.266L69.914,31.34l-.652.54c.034-.261.06-.54.078-.843l.121-1.533a13.191,13.191,0,0,1,.146-1.632l.073-.5a.211.211,0,0,1,.044-.113.187.187,0,0,1,.111-.1.735.735,0,0,1,.4.017c.057.012.262.087.6.215.017-.027.078-.165.2-.4l-.346-.188c-.121-.04-.288-.109-.508-.206-.3-.134-.5-.23-.593-.284a15.638,15.638,0,0,1-1.527-.893c-.039-.018-.135-.081-.291-.172l-.226.419Zm8.752,5.1c.062.067.1.135.158.187a3.4,3.4,0,0,1,.364.486c.032.051.069.1.086.136a.253.253,0,0,1,.055.174.965.965,0,0,0-.067.086l-.457.5-.445.426-.607.625-.452.421-1.471,1.439-.113.113c-.114.108-.189.185-.226.226a1.158,1.158,0,0,1-.33.234,3.193,3.193,0,0,1-.666-.442,3.232,3.232,0,0,0-.338-.256l-.271.27.477.457.157.163c.475.434.85.8,1.162,1.122.607.627,1.12,1.173,1.527,1.64.591.663.963,1.061,1.093,1.215.1.095.243.23.4.392l.515-.364.877-.574.149-.087a1.489,1.489,0,0,1,.183-.145,1.624,1.624,0,0,0-.132-.128,1.579,1.579,0,0,0-.205-.192,2.76,2.76,0,0,1-1.157.271,1.336,1.336,0,0,1-.715-.219,6.583,6.583,0,0,1-.979-.85,4.441,4.441,0,0,1-.873-1.065.3.3,0,0,1,.1-.312l.85-.808c.216-.2.474-.448.777-.751a1.118,1.118,0,0,1,.135-.129c.217.176.513.465.9.85a4.624,4.624,0,0,1,.536.607.389.389,0,0,1,.044.257,2.2,2.2,0,0,1-.325.582,3.287,3.287,0,0,0-.2.3l.271.284.084-.079c.079-.078.2-.191.33-.346.154-.159.26-.278.33-.341s.121-.109.192-.175.262-.243.534-.508c.121-.121.3-.289.517-.533l-.227-.219-.061-.055a5.3,5.3,0,0,1-.706.42.532.532,0,0,1-.288.041,1.276,1.276,0,0,1-.434-.3c-.211-.183-.544-.5-.986-.966-.047-.05-.1-.112-.153-.183l.486-.474.663-.628c.445-.436.7-.68.765-.749.249.243.53.525.839.85.272.274.516.549.729.81.121.154.194.236.215.262a1.438,1.438,0,0,1,.215.283,2.512,2.512,0,0,1-.121.6l-.128.436c-.06.143-.108.243-.14.323a1.871,1.871,0,0,0,.121.145l.164.153c.034-.033.07-.055.075-.066l.157-.164.821-.787a.377.377,0,0,0,.13-.266,5.733,5.733,0,0,0-.617-.763l-.692-.706c-.455-.486-.972-.987-1.567-1.552-.391-.378-.624-.607-.714-.706a7.009,7.009,0,0,1-.656-.76c-.084-.121-.206-.261-.341-.426Zm1.283,10.894a1.58,1.58,0,0,0-.165.091l.121.211a5.345,5.345,0,0,0,.293.543l.385.656c.018.035.049.1.095.183.062.128.227.559.51,1.291l.1.2c.007.019.025.056.057.121a2.749,2.749,0,0,0,.381-.158,4.831,4.831,0,0,0-.143-.752,1.353,1.353,0,0,1-.05-.421l.942-.414,1.072-.557a3.091,3.091,0,0,1,.344-.148c.079.151.137.265.176.329a1.07,1.07,0,0,1,.143.553,2.249,2.249,0,0,1-.375.607c-.521.69-.906,1.178-1.153,1.476-.09.121-.231.3-.4.56l-.243.31a2.022,2.022,0,0,0,.121.211c.115.188.176.3.193.329l.243.5c.072.152.13.287.175.4l.092.2.09.27.063.1.052.13a.448.448,0,0,0,.121-.05.5.5,0,0,0,.13-.1,1.57,1.57,0,0,0,0-.417,1.714,1.714,0,0,1,0-.465,4.671,4.671,0,0,1,.4-.672l.9-1.406c.092-.143.21-.339.33-.568.066-.111.121-.2.176-.276a2.065,2.065,0,0,0,1.085.678,1.565,1.565,0,0,0,1.044-.121,1.7,1.7,0,0,0,.89-1.165A2.571,2.571,0,0,0,85.7,42.2a13.083,13.083,0,0,0-.647-1.187l-.329-.594-.136-.255c-.015-.019-.063-.153-.166-.4-.121-.225-.191-.379-.228-.447a2.821,2.821,0,0,0-.256-.44l-.062.01-.289.148c.03.1.106.283.21.557l.079.312c-.183.1-.615.324-1.29.657-.313.152-.64.308-1,.474l-.271.121-.458.234-.6.272-1.081.538c-.274.13-.429.205-.476.225a1.057,1.057,0,0,1-.162.033,2.633,2.633,0,0,1-.326-.4,1.045,1.045,0,0,0-.288-.325.85.85,0,0,0-.152.056Zm4.406.607c.063.165.121.274.151.349a1.985,1.985,0,0,0,.878,1.041,1.085,1.085,0,0,0,.972-.043,2.009,2.009,0,0,0,.527-.364,1.159,1.159,0,0,0,.31-.411,1.458,1.458,0,0,0,.061-.618,2.794,2.794,0,0,0-.271-.729,1.853,1.853,0,0,0-.219-.372l-.091.033-.647.33-.417.182-.532.27c-.152.062-.344.155-.59.264Zm6.4,8.877a4.179,4.179,0,0,0-.058-.78,2.505,2.505,0,0,0-.949-1.687,1.992,1.992,0,0,0-1.558-.327,2.221,2.221,0,0,0-.843.39,1.926,1.926,0,0,0-.617.747,5.859,5.859,0,0,0-.353,1.487,4.478,4.478,0,0,1-.319,1.32,1.048,1.048,0,0,1-.664.51,1.1,1.1,0,0,1-.646-.1,1.161,1.161,0,0,1-.508-.479,2,2,0,0,1-.257-.618,1.651,1.651,0,0,1-.006-.622,1.28,1.28,0,0,1,.166-.532,2.178,2.178,0,0,1,.364-.452,7.127,7.127,0,0,1,.662-.472l-.106-.486-.205.038c-.094.018-.254.055-.486.1-.442.106-.683.16-.729.163L81.4,49.5c-.047.022-.083.044-.087.068a1.172,1.172,0,0,0-.069.364l-.068.683a5.074,5.074,0,0,0,.068.918,3.331,3.331,0,0,0,.281.911,2.687,2.687,0,0,0,.449.638,3.408,3.408,0,0,0,.479.43,1.517,1.517,0,0,0,.551.231,2.82,2.82,0,0,0,1.03-.007,2.257,2.257,0,0,0,.743-.268,2.172,2.172,0,0,0,.555-.557,2.293,2.293,0,0,0,.327-.8,5.071,5.071,0,0,0,.146-.85,3.15,3.15,0,0,1,.356-1.4,1.013,1.013,0,0,1,.607-.435.9.9,0,0,1,.736.174,1.264,1.264,0,0,1,.445.764A1.308,1.308,0,0,1,87.7,51.41a2.863,2.863,0,0,1-.862.656v.062l.056.395.022.051a1.094,1.094,0,0,0,.208-.012,8.162,8.162,0,0,0,.85-.232c.236-.083.415-.149.532-.205a6.852,6.852,0,0,0,.072-.856Zm-6.725,4.428c.034.364.043.652.043.842l-.032.972c-.051.432-.078.678-.081.729a1.131,1.131,0,0,0-.024.136c0,.018,0,.087.01.209v.1c.085.009.145.018.185.018.075,0,.171-.01.272-.018.034-.193.051-.307.051-.336a5.494,5.494,0,0,1,.111-.607c.056-.006.1-.011.121-.011h.211l1.093.016.729.024,1.446.016c.328.007.8.019,1.419.045a2.958,2.958,0,0,1,.374-.008,1.75,1.75,0,0,1,.414.036,4,4,0,0,1,.14.465,2.743,2.743,0,0,0,.131.5c.092.01.171.019.233.019h.174c0-.07-.008-.243-.019-.5-.028-.486-.028-.82-.028-1.03a3.162,3.162,0,0,1,.022-.364l.087-1.556h-.477a.875.875,0,0,0-.022.194,2.1,2.1,0,0,1-.138.729,1.23,1.23,0,0,1-.182.035h-.232l-.622.011-.287-.021H86.24c-.021,0-.386-.023-1.11-.06h-.3l-1.245-.038h-.641a.945.945,0,0,1-.464-.106,2.212,2.212,0,0,1-.174-.538c-.039-.171-.066-.285-.086-.364l-.4-.006a3.649,3.649,0,0,0,.024.458Zm6.66,6.121a10.863,10.863,0,0,1-1.261-.821,1.231,1.231,0,0,0-.283.261c-.01.047.029.121.108.243a3.365,3.365,0,0,1,.538.867,1.735,1.735,0,0,1-.083.687,9.518,9.518,0,0,1-.317,1.059.087.087,0,0,1-.043.063.1.1,0,0,1-.083.016,8.968,8.968,0,0,1-1.007-.238l-2-.514c-.924-.243-1.585-.432-2.01-.57a.8.8,0,0,1-.243-.135,5.394,5.394,0,0,1-.032-.827.776.776,0,0,0-.1-.5l-.046-.009-.121-.03c-.027,0-.07-.018-.121-.028-.017.064-.047.192-.083.4-.1.523-.162.844-.183.95-.18.662-.311,1.122-.408,1.368a8.56,8.56,0,0,0-.288.916,1.584,1.584,0,0,1-.049.193c.061.024.1.043.136.052a1.939,1.939,0,0,0,.232.028,2.025,2.025,0,0,0,.162-.255,2.208,2.208,0,0,0,.183-.364,1.794,1.794,0,0,1,.158-.291,1.477,1.477,0,0,1,.565.08l.691.185,1.674.435,1.544.415.719.192a1.869,1.869,0,0,1,.328.112,3.765,3.765,0,0,1-.081.377,10.445,10.445,0,0,1-.326,1.1.308.308,0,0,1-.121.129,2.934,2.934,0,0,1-.486.089,3.327,3.327,0,0,0-.669.148,1.905,1.905,0,0,0-.024.395,1.906,1.906,0,0,0,.243.09l.267.073.464.13c.5.121.865.215,1.1.277.022-.067.033-.121.047-.155l.061-.231a1,1,0,0,0-.13-.092,1.062,1.062,0,0,1-.214-.211l.039-.328.436-1.632.321-1.188.174-.646.019-.1c.056-.213.121-.453.2-.729.109-.432.18-.67.2-.717a2.5,2.5,0,0,1,.4-.136.364.364,0,0,0,.1-.029l.087-.325C88.818,62.013,88.691,61.936,88.509,61.828Zm-2.976,9.24c-.021-.018-.053-.038-.066-.047a.527.527,0,0,0-.083-.028c-.216.217-.333.33-.364.357a.743.743,0,0,1-.206.1c-.335.023-.525.04-.56.04l-.949-.017-1.949.013a2.213,2.213,0,0,0-.324.021,1.342,1.342,0,0,1-.859-.121l-.106-.066c-.029-.021-.13-.081-.3-.189s-.486-.318-.959-.616l-.264-.175c.011-.039.017-.084.028-.134l.375-.956c-.062-.042-.108-.074-.143-.1a.776.776,0,0,0-.146-.084l-.205.312a2.221,2.221,0,0,0-.2.364.821.821,0,0,1-.115.217l-.243.38-.33.517-.231.328-.364.463-.364.522a1.471,1.471,0,0,0,.121.087.528.528,0,0,0,.106.078.106.106,0,0,0,.113.019,1.99,1.99,0,0,0,.391-.441c.121-.134.2-.225.243-.262a.3.3,0,0,1,.081-.017l1.183.747a1.686,1.686,0,0,1,.234.168l.121.079.394.262.141.094a.619.619,0,0,1,.113.176c.111.21.29.663.549,1.336l.5,1.179a3.568,3.568,0,0,1,.394,1.044,1.662,1.662,0,0,1-.175.635l-.017.07.338.221a.868.868,0,0,1,.074-.132c.1-.168.16-.3.214-.412l.047-.077.142-.222a.392.392,0,0,1,.087-.1l.656-.912a3.226,3.226,0,0,0-.356-.187c-.029.029-.069.072-.121.128a1.338,1.338,0,0,1-.148.157.98.98,0,0,1-.145.186.42.42,0,0,1-.121.077.6.6,0,0,1-.1-.036.705.705,0,0,1-.142-.21l-.434-.84,0-.05c-.22-.5-.373-.891-.476-1.183l-.364-.9a2.323,2.323,0,0,1,.329-.013h.395a.854.854,0,0,1,.113,0c.351.013.544.018.594.013h.574a7.961,7.961,0,0,1,1.432.018l.058.05v.038c-.067.147-.115.253-.154.341l-.092.222a1.259,1.259,0,0,0-.1.293l.227.155a.594.594,0,0,0,.109.034l.023-.034a.469.469,0,0,0,.033-.077,6.672,6.672,0,0,1,.419-.746c.155-.226.355-.519.641-.883a4.27,4.27,0,0,1,.282-.352l.024-.056c.018-.028.057-.074.115-.145l.039-.039a2.7,2.7,0,0,0,.335-.6A1.39,1.39,0,0,1,85.534,71.068Z" transform="translate(-19.767 -20.365)" fill="#fff" fill-rule="evenodd"/>
    </g>
    <g id="Group_1474" data-name="Group 1474" transform="translate(265.168 70.09)">
      <path id="Path_97" data-name="Path 97" d="M147.917,0H0" transform="translate(0 24.649)" fill="#fff" stroke="#fff" stroke-width="0.6"/>
      <g id="Group_1473" data-name="Group 1473" transform="translate(0.584 0)">
        <path id="Path_44" data-name="Path 44" d="M614.511,148.48c.534,0,1.531.067,3.128.067,1.641,0,2.514-.067,3.106-.067a1.1,1.1,0,0,1-.022.71,7.3,7.3,0,0,0-1.043.2c-.444.155-.555.4-.577,1.087-.022.976-.022,2.263-.022,3.793a.274.274,0,0,0,.111.177,28.179,28.179,0,0,0,3.172.044c1.73,0,2.507,0,2.773-.022.044-.022.133-.089.133-.148,0-1.109,0-3.061-.044-4.148a.73.73,0,0,0-.466-.732,4.69,4.69,0,0,0-1.22-.244.8.8,0,0,1,0-.71c.8,0,1.642.067,3.172.067,1.6,0,2.485-.067,3.017-.067a.878.878,0,0,1,0,.71,5.144,5.144,0,0,0-1.087.222c-.421.155-.555.377-.577,1.087-.044,1.242-.044,2.307-.044,5.013,0,1.619,0,3.594.044,4.5.044.6.133.932.532,1.065a6.407,6.407,0,0,0,1.4.266,1.056,1.056,0,0,1-.089.739c-.6,0-1.753-.067-3.194-.067-1.353,0-2.662.067-3.172.067a.943.943,0,0,1-.022-.739,5.541,5.541,0,0,0,1.131-.2c.4-.111.577-.377.6-1.065.022-.91.022-2.751.022-4.193a.148.148,0,0,0-.133-.155c-.422-.022-1.8-.022-2.839-.022-2.285.022-3.017.022-3.15.067a.373.373,0,0,0-.067.133c0,1.331,0,3.172.022,3.993.022.688.111,1.043.643,1.2a8.531,8.531,0,0,0,1.264.244,1.042,1.042,0,0,1-.089.739c-.422,0-1.464-.067-3.305-.067-1.575,0-2.683.067-3.15.067a1.209,1.209,0,0,1,0-.739c.511-.067.754-.111,1.066-.177.592-.155.731-.51.775-1.486.022-.466.045-2.462.045-4.414,0-2.152-.022-4.237-.045-4.814-.044-.688-.148-.932-.591-1.043a7.149,7.149,0,0,0-1.219-.222A1.082,1.082,0,0,1,614.511,148.48Z" transform="translate(-614.408 -147.171)" fill="#fff"/>
        <path id="Path_45" data-name="Path 45" d="M729.956,180.346a1.884,1.884,0,0,0-1.575-.732,1.66,1.66,0,0,0-1.02.266,6.881,6.881,0,0,0-.8,1.42c-.089.089-.776-.244-.754-.4a4.525,4.525,0,0,1,.488-1.4,7.493,7.493,0,0,1,3.283-1.353,2.877,2.877,0,0,1,2.484,1.287,3.925,3.925,0,0,1,.553,2.24c0,1.065-.065,2.6-.065,3.483,0,.444.148.865.686.865a2.218,2.218,0,0,0,.754-.111,2.533,2.533,0,0,1-.111.821,3.4,3.4,0,0,1-2.219.821,1.259,1.259,0,0,1-1.286-.643l-.133-.421c0-.044-.067-.044-.089-.044a6.01,6.01,0,0,1-2.529,1.109,1.912,1.912,0,0,1-1.287-.532,2.944,2.944,0,0,1-.843-2.13,4.075,4.075,0,0,1,.377-1.309c.688-.377,3.4-1.02,4.215-1.4a.4.4,0,0,0,.177-.244,2.433,2.433,0,0,0,.022-.4A2.134,2.134,0,0,0,729.956,180.346Zm.222,2.551a16.062,16.062,0,0,0-2.13.821,1.816,1.816,0,0,0-.2.732,1.485,1.485,0,0,0,1.486,1.575,1.319,1.319,0,0,0,.71-.2.492.492,0,0,0,.178-.444c.044-.621.044-2,.044-2.374,0-.018-.066-.106-.089-.106Z" transform="translate(-709.068 -172.453)" fill="#fff"/>
        <path id="Path_46" data-name="Path 46" d="M792.958,146.44a4.384,4.384,0,0,1,1.02,2.884,4.837,4.837,0,0,1-1.886,4.059,7.569,7.569,0,0,1-3.592,1.353,8.2,8.2,0,0,1-2.107-.288,2.423,2.423,0,0,0-1.264,0c-.067.022-.2-.111-.2-.155.066-.754.111-2.44.111-5.568-.022-3.239-.022-6.1-.111-6.877-.044-.355-.111-.51-.488-.621a7.136,7.136,0,0,0-.954-.155.971.971,0,0,1,.044-.665,18.481,18.481,0,0,0,4.1-.776c.066.022.148.3.133.4-.177.311-.244.643-.244,3.283v2.972c.022.067.067.089.111.067a7.63,7.63,0,0,1,2.839-1.02A3.171,3.171,0,0,1,792.958,146.44Zm-5.256.621a.421.421,0,0,0-.155.311c-.044.954-.044,3.527.022,4.681a1.314,1.314,0,0,0,.377,1,2.3,2.3,0,0,0,1.553.577,1.462,1.462,0,0,0,1.242-.621,4.324,4.324,0,0,0,.686-2.551,4.411,4.411,0,0,0-.71-2.684,2.16,2.16,0,0,0-1.951-.976A2.663,2.663,0,0,0,787.7,147.061Z" transform="translate(-758.45 -139.63)" fill="#fff"/>
        <path id="Path_47" data-name="Path 47" d="M868,164.507c-.444,0-1.22-.067-2.529-.067-1.131,0-1.974.067-2.462.067a1.2,1.2,0,0,1,0-.739,3.936,3.936,0,0,0,.865-.177c.288-.111.355-.311.377-.843s.044-1.93.044-3.039c0-.776-.022-1.642-.022-2.041a.776.776,0,0,0-.178-.532,2.134,2.134,0,0,0-.932-.51.919.919,0,0,1,.067-.643,13.688,13.688,0,0,0,3.571-.739c0,.932-.022,2.529-.022,3.815,0,1.154,0,2.64.022,3.66,0,.577.133.754.421.865a5.093,5.093,0,0,0,.865.177A1.079,1.079,0,0,1,868,164.507Zm-1.789-10.914a2.628,2.628,0,0,1-1.442.111,1.308,1.308,0,0,1-.687-.954,1.576,1.576,0,0,1,.133-.954,2.552,2.552,0,0,1,1.464-.466,1.248,1.248,0,0,1,.887.266,1.444,1.444,0,0,1,.2.754A1.71,1.71,0,0,1,866.215,153.593Z" transform="translate(-826.199 -149.6)" fill="#fff"/>
        <path id="Path_48" data-name="Path 48" d="M909.8,146.44a4.384,4.384,0,0,1,1.02,2.884,4.838,4.838,0,0,1-1.885,4.059,7.57,7.57,0,0,1-3.594,1.353,8.193,8.193,0,0,1-2.107-.288,2.424,2.424,0,0,0-1.264,0c-.067.022-.2-.111-.2-.155.066-.754.111-2.44.111-5.568-.022-3.239-.022-6.1-.111-6.877-.044-.355-.111-.51-.488-.621a7.138,7.138,0,0,0-.954-.155.974.974,0,0,1,.044-.665,18.481,18.481,0,0,0,4.1-.776c.067.022.148.3.133.4-.177.311-.244.643-.244,3.283v2.972c.022.067.067.089.111.067a7.631,7.631,0,0,1,2.839-1.02A3.174,3.174,0,0,1,909.8,146.44Zm-5.257.621a.42.42,0,0,0-.148.311c-.044.954-.044,3.527.022,4.681a1.316,1.316,0,0,0,.377,1,2.3,2.3,0,0,0,1.553.577,1.462,1.462,0,0,0,1.242-.621,4.314,4.314,0,0,0,.688-2.551,4.471,4.471,0,0,0-.71-2.684,2.164,2.164,0,0,0-1.952-.976A2.661,2.661,0,0,0,904.542,147.061Z" transform="translate(-858.011 -139.63)" fill="#fff"/>
        <path id="Path_49" data-name="Path 49" d="M1006.942,148.48c.688,0,1.974.067,3.217.067,1.309,0,2.418-.067,3.194-.067a.979.979,0,0,1,0,.71c-.4.067-.754.133-1.021.2-.532.111-.71.466-.74,1.183-.044,1.775,0,4.126,0,5.3a13.445,13.445,0,0,0,.267,2.617c.311,1.442,1.464,2.462,3.616,2.462,1.6,0,3.283-.532,3.5-3.7.111-1.664.132-4.836.043-6.389-.043-.932-.244-1.309-.975-1.442a9.956,9.956,0,0,0-1.242-.222,1.115,1.115,0,0,1,.022-.71c.686,0,1.618.067,2.727.067,1.442,0,2.107-.067,2.573-.067a.879.879,0,0,1,0,.71,8.454,8.454,0,0,0-.932.2c-.577.155-.754.51-.8,1.6-.067,2-.111,4.584-.266,6.1-.333,4.015-2.638,5.324-5.7,5.324-3.845,0-5.235-1.841-5.5-4.082-.2-1.553-.155-5.679-.177-7.808-.023-.577-.177-.954-.687-1.109a6.679,6.679,0,0,0-1.154-.222A1.18,1.18,0,0,1,1006.942,148.48Z" transform="translate(-948.833 -147.171)" fill="#fff"/>
        <path id="Path_50" data-name="Path 50" d="M1110.658,186.009c.31-.089.421-.4.466-.843.023-.666.044-2.366.044-3.483,0-.643-.022-1.464-.044-1.752-.044-.222-.222-.51-1.087-.821a1.313,1.313,0,0,1,.111-.6,11.716,11.716,0,0,0,3.4-.932.224.224,0,0,1,.089.148c0,.244-.022.865-.022,1.242a.078.078,0,0,0,.038.062.08.08,0,0,0,.073,0,5.381,5.381,0,0,1,2.9-1.375,2.524,2.524,0,0,1,2.241,1.176,4.771,4.771,0,0,1,.577,2.618c0,1.309,0,3.239.023,3.971a.459.459,0,0,0,.2.377,2.509,2.509,0,0,0,1.087.333,1.225,1.225,0,0,1-.111.739c-.333,0-1-.067-2.418-.067-1.154,0-1.684.044-2.366.067a1.642,1.642,0,0,1,0-.739,5.994,5.994,0,0,0,.71-.133c.266-.111.353-.311.377-.739a39.27,39.27,0,0,0-.09-4.547,1.694,1.694,0,0,0-.642-1.109,1.605,1.605,0,0,0-1.087-.333,2.457,2.457,0,0,0-1.286.421.592.592,0,0,0-.2.488c.022,1.486.022,3.86.044,5.035.023.555.148.688.467.776a3.637,3.637,0,0,0,.739.133,1.418,1.418,0,0,1-.067.739c-.687-.022-1.419-.067-2.484-.067-1.353,0-1.974.044-2.4.067a1.37,1.37,0,0,1,0-.739A4.238,4.238,0,0,0,1110.658,186.009Z" transform="translate(-1036.621 -171.968)" fill="#fff"/>
        <path id="Path_51" data-name="Path 51" d="M1193.047,164.507c-.443,0-1.22-.067-2.528-.067-1.131,0-1.974.067-2.463.067a1.214,1.214,0,0,1,0-.739,3.935,3.935,0,0,0,.865-.177c.3-.111.355-.311.377-.843s.044-1.93.044-3.039c0-.776-.023-1.642-.023-2.041a.771.771,0,0,0-.177-.532,2.133,2.133,0,0,0-.932-.51.921.921,0,0,1,.067-.643,13.688,13.688,0,0,0,3.571-.739c0,.932-.022,2.529-.022,3.815,0,1.154,0,2.64.022,3.66,0,.577.133.754.422.865a5.088,5.088,0,0,0,.865.177A1.074,1.074,0,0,1,1193.047,164.507Zm-1.795-10.914a2.628,2.628,0,0,1-1.442.111,1.308,1.308,0,0,1-.687-.954,1.58,1.58,0,0,1,.133-.954,2.553,2.553,0,0,1,1.465-.466,1.248,1.248,0,0,1,.887.266,1.444,1.444,0,0,1,.2.754A1.71,1.71,0,0,1,1191.252,153.593Z" transform="translate(-1103.174 -149.6)" fill="#fff"/>
        <path id="Path_52" data-name="Path 52" d="M1223.719,179.83c.643.022,1.642.066,2.551.066,1.087,0,1.841-.044,2.329-.066a.874.874,0,0,1,.044.71,6.953,6.953,0,0,0-.8.2.24.24,0,0,0-.133.3c.266.865,1.42,3.86,1.8,4.769.022.044.067.022.089,0,.421-1.043,1.287-3.194,1.575-4.17.2-.592.044-.776-.2-.865a4.677,4.677,0,0,0-1-.222,1.081,1.081,0,0,1,.089-.71c.311,0,1.183.067,2,.067.71,0,1.531-.044,1.952-.067a.985.985,0,0,1-.022.71,5.814,5.814,0,0,0-.776.177c-.355.133-.592.444-.887,1.065-.577,1.2-1.375,3.039-2.129,4.925-.355.932-.577,1.553-.754,2.085a7.588,7.588,0,0,0-1.42.022c-.178-.577-.422-1.22-.688-1.93-.555-1.508-1.265-3.239-1.686-4.281-.643-1.531-.754-1.708-1.264-1.886a5.516,5.516,0,0,0-.776-.177A1.471,1.471,0,0,1,1223.719,179.83Z" transform="translate(-1133.512 -173.885)" fill="#fff"/>
        <path id="Path_53" data-name="Path 53" d="M1303.836,184.99a2.584,2.584,0,0,1-.089.688,5.426,5.426,0,0,1-3.9,1.908,3.92,3.92,0,0,1-2.884-1.065,5.024,5.024,0,0,1-1.309-3.616,4.617,4.617,0,0,1,2.041-3.993,5.373,5.373,0,0,1,2.573-.732,3.4,3.4,0,0,1,3.372,3.194c.022.111.2.222.355.266a1.324,1.324,0,0,1-.148.577,39.973,39.973,0,0,1-5.59.51c-.067,0-.111.133-.111.222a3.18,3.18,0,0,0,.865,1.952,2.858,2.858,0,0,0,2.2.843,3.934,3.934,0,0,0,2.551-.887C1303.768,184.879,1303.836,184.924,1303.836,184.99Zm-5.723-3.372c0,.022.044.133.133.133a22.545,22.545,0,0,0,2.81-.089.246.246,0,0,0,.148-.2c-.111-1.309-.666-2.418-1.627-2.418-.845,0-1.444,1.065-1.466,2.573Z" transform="translate(-1194.906 -172.479)" fill="#fff"/>
        <path id="Path_54" data-name="Path 54" d="M1365.223,178.268a1.5,1.5,0,0,1,0,.444,7.541,7.541,0,0,1-.887,1.819.4.4,0,0,1-.266.067,2.555,2.555,0,0,0-1.663-.865,1.183,1.183,0,0,0-.821.466.883.883,0,0,0-.133.466c-.022,1.264,0,4.059.022,4.392.044.577.111.776.554.887a6.364,6.364,0,0,0,1.22.2,1.252,1.252,0,0,1-.111.739c-.4,0-1.6-.067-3-.067-.931,0-1.922.067-2.44.067a1.2,1.2,0,0,1,0-.739,2.86,2.86,0,0,0,.865-.177c.2-.067.333-.244.355-.688.044-.4.066-2.063.066-3.5,0-.776,0-1.442-.044-1.775-.022-.3-.148-.577-1.154-.932a1.568,1.568,0,0,1,.111-.577,10.854,10.854,0,0,0,3.394-.91.209.209,0,0,1,.155.111c-.022.288-.089,1.353-.089,1.708,0,.067.089.067.134.044a10.444,10.444,0,0,1,1.308-1.309,2.118,2.118,0,0,1,1.221-.466A1.315,1.315,0,0,1,1365.223,178.268Z" transform="translate(-1247.732 -171.968)" fill="#fff"/>
        <path id="Path_55" data-name="Path 55" d="M1419.812,180.975a1.211,1.211,0,0,1-.687.044c-.178-.932-.4-1.508-.91-1.819a1.933,1.933,0,0,0-.976-.266,1.1,1.1,0,0,0-1.2,1.065c0,.643.266,1.02,2.13,1.886,1.775.8,2.307,1.553,2.307,2.728,0,1.841-1.752,2.95-3.815,2.95a8.417,8.417,0,0,1-2.64-.421c-.111-.488-.31-2.24-.333-2.662a1.488,1.488,0,0,1,.71-.222,3.5,3.5,0,0,0,1.4,2.2,2.336,2.336,0,0,0,1.183.311c.776,0,1.264-.421,1.264-1.02,0-.665-.4-1.043-1.53-1.6-2.13-1.02-2.773-1.841-2.773-3.128,0-1.531,1.2-2.839,3.594-2.839a12.223,12.223,0,0,1,1.531.133l1.02.133A18.515,18.515,0,0,0,1419.812,180.975Z" transform="translate(-1295.488 -172.479)" fill="#fff"/>
        <path id="Path_56" data-name="Path 56" d="M1471.9,164.507c-.443,0-1.22-.067-2.529-.067-1.131,0-1.974.067-2.462.067a1.2,1.2,0,0,1,0-.739,3.932,3.932,0,0,0,.865-.177c.3-.111.355-.311.377-.843s.044-1.93.044-3.039c0-.776-.022-1.641-.022-2.041a.776.776,0,0,0-.177-.532,2.138,2.138,0,0,0-.932-.51.916.916,0,0,1,.066-.643,13.687,13.687,0,0,0,3.572-.739c0,.932-.022,2.529-.022,3.815,0,1.154,0,2.64.022,3.66,0,.577.133.754.422.865a5.1,5.1,0,0,0,.865.177A1.126,1.126,0,0,1,1471.9,164.507Zm-1.8-10.914a2.626,2.626,0,0,1-1.442.111,1.307,1.307,0,0,1-.687-.954,1.571,1.571,0,0,1,.133-.954,2.552,2.552,0,0,1,1.464-.466,1.247,1.247,0,0,1,.887.266,1.443,1.443,0,0,1,.2.754,1.709,1.709,0,0,1-.556,1.242Z" transform="translate(-1340.791 -149.6)" fill="#fff"/>
        <path id="Path_57" data-name="Path 57" d="M1509.756,163.33c-.045,0-.089.089-.089.133-.022.91-.022,2.6-.022,3.66a7.326,7.326,0,0,0,.111,1.642,1.152,1.152,0,0,0,1.2.865,1.982,1.982,0,0,0,1.242-.333,1.755,1.755,0,0,1-.023.754,3.194,3.194,0,0,1-2.506,1.131,2.323,2.323,0,0,1-2.174-1.087,4.8,4.8,0,0,1-.333-2.484c0-1.153.023-3.15.023-4.082a.214.214,0,0,0-.133-.2c-.311-.022-.777-.044-1.109-.089a3.241,3.241,0,0,1,.2-.865,5.779,5.779,0,0,0,.932-.222c.044,0,.089-.089.111-.178v-1.886a8.9,8.9,0,0,0,2.107-1.131,1.644,1.644,0,0,1,.466-.022c-.044.444-.089,1.508-.089,2.995,0,.067.045.155.089.155.665,0,2.018-.067,2.529-.111a9.793,9.793,0,0,0-.222,1.375C1511.442,163.33,1510.533,163.33,1509.756,163.33Z" transform="translate(-1374.096 -156.076)" fill="#fff"/>
        <path id="Path_58" data-name="Path 58" d="M1551.474,179.83c.31,0,1.331.066,2.617.066,1.2,0,1.93-.066,2.463-.066a1.279,1.279,0,0,1,.044.71,4.212,4.212,0,0,0-.708.2.377.377,0,0,0-.178.4c.355,1.065,1.553,4.1,1.8,4.614h.089a25.088,25.088,0,0,0,1.53-4.281c.023-.3.023-.577-.4-.71a4.608,4.608,0,0,0-.976-.222,1.621,1.621,0,0,1,.089-.71c.422,0,1.174.067,1.995.067.754,0,1.464-.044,2.107-.067a1.276,1.276,0,0,1,.022.71,2.9,2.9,0,0,0-.8.222c-.4.155-.666.466-.932,1.22a83.58,83.58,0,0,1-4.99,10.6c-.266.488-.6,1.065-.754,1.375l-.244.066a2.7,2.7,0,0,1-1.4-.665.88.88,0,0,1,.022-.421,25.612,25.612,0,0,0,3.15-4.414,3.284,3.284,0,0,1-.266-.51c-.51-1.242-1.375-3.4-2.152-5.213-.643-1.508-.843-1.886-1.464-2.085-.222-.067-.488-.111-.777-.177A1.4,1.4,0,0,1,1551.474,179.83Z" transform="translate(-1412.797 -173.885)" fill="#fff"/>
      </g>
      <g id="Group_1472" data-name="Group 1472" transform="translate(0.853 29.355)">
        <path id="Path_59" data-name="Path 59" d="M620.261,362.907c-.018.052-.244.052-.28.018-.087-.785-.244-1.183-.628-1.362a1.66,1.66,0,0,0-.768-.175,1.029,1.029,0,0,0-1.083,1.065c0,.592.192.978,1.467,1.627,1.412.714,1.727,1.238,1.727,2.041a2.27,2.27,0,0,1-2.53,2.058,4.9,4.9,0,0,1-1.727-.331,10.872,10.872,0,0,1-.21-1.815c.018-.052.21-.1.279-.069a2.173,2.173,0,0,0,1.065,1.676,1.68,1.68,0,0,0,.785.191,1.1,1.1,0,0,0,1.2-1.063c0-.645-.315-1-1.257-1.519-1.466-.768-1.85-1.361-1.85-2.233,0-1.047.821-1.955,2.366-1.955a5.765,5.765,0,0,1,1,.087,5.943,5.943,0,0,0,.629.069A9.9,9.9,0,0,0,620.261,362.907Z" transform="translate(-616.23 -355.962)" fill="#fff"/>
        <path id="Path_60" data-name="Path 60" d="M676.285,327.148a7.191,7.191,0,0,0,2.391-.557.22.22,0,0,1,.07.157c-.1.192-.141.367-.157,1.517-.035.977,0,3.91,0,4.468,0,.018.034.035.069.018a4.135,4.135,0,0,1,2.39-1.065c1.291,0,2.007,1,2.007,2.723,0,.908,0,2.6.018,3.367a.443.443,0,0,0,.123.331,1.771,1.771,0,0,0,.887.262c.018.053,0,.262-.052.28-.226,0-.887-.052-1.658-.052s-1.309.034-1.553.052a.378.378,0,0,1,0-.28,4.038,4.038,0,0,0,.68-.139c.21-.105.3-.175.314-.942a23.671,23.671,0,0,0-.087-3.56,1.517,1.517,0,0,0-1.6-1.222,1.987,1.987,0,0,0-1.331.488.573.573,0,0,0-.209.4c0,1.22,0,3.611.034,4.083.035.54.123.7.454.785a4.258,4.258,0,0,0,.575.1.273.273,0,0,1,0,.262c-.208,0-.75-.034-1.745-.034-.767,0-1.2.052-1.517.052-.018-.034-.035-.226.018-.28a3.428,3.428,0,0,0,.575-.1c.279-.087.349-.3.367-.821.034-.418.034-2.548.034-2.984,0-4.484-.016-5.933-.087-6.544-.034-.244-.087-.365-.349-.435-.157-.035-.365-.053-.662-.087A.433.433,0,0,1,676.285,327.148Z" transform="translate(-667.386 -326.59)" fill="#fff"/>
        <path id="Path_61" data-name="Path 61" d="M762.723,362.432a1.627,1.627,0,0,0-1.377-.663,1.184,1.184,0,0,0-.629.157,2.878,2.878,0,0,0-.7,1.257c-.052.052-.331-.174-.331-.315a2.26,2.26,0,0,1,.314-.837,4.86,4.86,0,0,1,2.218-1,1.79,1.79,0,0,1,1.588.873,3.374,3.374,0,0,1,.367,1.711c0,.924-.053,2.233-.053,2.879,0,.314.123.768.628.768a1.527,1.527,0,0,0,.592-.087,1.128,1.128,0,0,1-.07.349,1.883,1.883,0,0,1-1.361.627.81.81,0,0,1-.821-.419,1.974,1.974,0,0,1-.123-.454.047.047,0,0,0-.069-.034,5.134,5.134,0,0,1-1.937.906,1.256,1.256,0,0,1-.887-.383,2.127,2.127,0,0,1-.577-1.5,3.2,3.2,0,0,1,.192-.837c.472-.28,2.635-.856,3.228-1.17a.311.311,0,0,0,.105-.157c.018-.21,0-.436,0-.68A1.8,1.8,0,0,0,762.723,362.432Zm.228,2.181a9.943,9.943,0,0,0-2.13.838,1.388,1.388,0,0,0-.123.54,1.19,1.19,0,0,0,1.205,1.275,1.956,1.956,0,0,0,.907-.262.457.457,0,0,0,.157-.367c.018-.541.035-1.693.035-1.989C763,364.631,762.973,364.6,762.951,364.613Z" transform="translate(-738.31 -355.941)" fill="#fff"/>
        <path id="Path_62" data-name="Path 62" d="M825.293,360.491a6.819,6.819,0,0,0,2.112-.872c.034-.018.121.087.105.121-.018.174-.035.8-.035,1.17,0,.018.052.018.069.018a4.961,4.961,0,0,1,2.461-1.1,2.233,2.233,0,0,1,1.658.767,3.447,3.447,0,0,1,.768,2.2,3.8,3.8,0,0,1-1.465,3.105,4.858,4.858,0,0,1-2.758,1.047,3.1,3.1,0,0,1-.7-.121.118.118,0,0,0-.053.087c0,1.763.018,2.652.053,3.3.016.506.139.611.54.68.228.036.489.053.855.087.035.053.017.279-.034.3h-.8c-1.465.018-2.356.175-2.931.209-.036-.034-.053-.262,0-.3.208-.053.506-.123.7-.192.3-.123.383-.331.4-.768.035-.7.035-2.218.035-4.572,0-2.669.018-3.56-.035-4.141-.018-.262-.052-.454-.209-.559a1.866,1.866,0,0,0-.769-.209A.3.3,0,0,1,825.293,360.491Zm2.373.714a.489.489,0,0,0-.21.367c-.034.367-.034,2.967,0,3.4a1.1,1.1,0,0,0,.443,1,2.088,2.088,0,0,0,1.24.331,1.992,1.992,0,0,0,1.273-.49,3.017,3.017,0,0,0,.785-2.32,3.344,3.344,0,0,0-.629-2.112,1.883,1.883,0,0,0-1.479-.7A2.246,2.246,0,0,0,827.667,361.205Z" transform="translate(-794.214 -354.732)" fill="#fff"/>
        <path id="Path_63" data-name="Path 63" d="M909.68,350.5c-.367,0-1.047-.052-1.606-.052-.716,0-1.331.052-1.627.052a.38.38,0,0,1,0-.28,1.935,1.935,0,0,0,.68-.139c.21-.087.3-.226.314-.716.035-.436.035-1.832.035-2.792,0-.68,0-1.291-.017-1.587a.5.5,0,0,0-.105-.349,1.245,1.245,0,0,0-.7-.333.715.715,0,0,1,0-.262,6.92,6.92,0,0,0,2.078-.524c-.018.472-.036,1.886-.036,2.949,0,.944,0,2.181.018,3.02,0,.367.121.523.367.611a2.791,2.791,0,0,0,.645.121C909.732,350.274,909.732,350.482,909.68,350.5Zm-1.309-8.743a1.218,1.218,0,0,1-.664.052.674.674,0,0,1-.365-.629.666.666,0,0,1,.087-.418,1.093,1.093,0,0,1,.7-.262.767.767,0,0,1,.47.157.626.626,0,0,1,.148.4A.814.814,0,0,1,908.371,341.757Z" transform="translate(-863.506 -338.443)" fill="#fff"/>
        <path id="Path_64" data-name="Path 64" d="M958.571,367.474c.244-.087.314-.367.331-.7.052-.611.034-1.815.034-2.828,0-.872-.016-1.5-.034-1.627-.036-.21-.148-.331-.821-.524-.018-.036,0-.226.053-.244a6.107,6.107,0,0,0,2.041-.664.08.08,0,0,1,.053.071c-.036.349-.053.739-.071,1.035,0,.052.035.087.071.07a4.223,4.223,0,0,1,2.408-1.159,1.746,1.746,0,0,1,1.553.887,3.673,3.673,0,0,1,.418,1.989c0,.908,0,2.514.018,3.21,0,.21.053.349.226.4a2.262,2.262,0,0,0,.751.191c.018.053,0,.245-.053.279-.244,0-.645-.052-1.517-.052-.838,0-1.344.034-1.71.052a.381.381,0,0,1,0-.279,4.41,4.41,0,0,0,.663-.1.512.512,0,0,0,.367-.541c.034-.767.052-3.089-.036-3.682a2.009,2.009,0,0,0-.506-1.116,1.4,1.4,0,0,0-1.065-.384,2.07,2.07,0,0,0-1.414.577c-.121.121-.174.262-.174.629,0,1.309,0,3,.035,3.768.018.506.105.629.314.7a3.094,3.094,0,0,0,.74.157.767.767,0,0,1-.018.279c-.3,0-.785-.052-1.676-.052-1.012,0-1.309.052-1.587.052a.38.38,0,0,1,0-.279,2.078,2.078,0,0,0,.6-.113Z" transform="translate(-907.406 -355.817)" fill="#fff"/>
        <path id="Path_65" data-name="Path 65" d="M1043.065,361.363a3.317,3.317,0,0,0,1.012.175c.68,0,.837-.1,1.065-.331.018-.018.121.034.121.087a1.933,1.933,0,0,1-.418.855.826.826,0,0,1-.557.139c-.148,0-.157,0-.444-.018-.018,0-.035.053-.018.087a3.051,3.051,0,0,1,.21,1.152,2.564,2.564,0,0,1-1,2.218,3.484,3.484,0,0,1-1.9.732,1.051,1.051,0,0,1-.244.018c-.174.035-.523.21-.523.488,0,.349.383.523.627.559a28.14,28.14,0,0,1,2.845.349,1.721,1.721,0,0,1,1.273,1.727,3.482,3.482,0,0,1-2.058,2.9,3.911,3.911,0,0,1-1.9.472,3.079,3.079,0,0,1-1.9-.577,2.031,2.031,0,0,1-.872-1.64,1.364,1.364,0,0,1,.123-.611,15.345,15.345,0,0,1,1.727-1.448c.018,0,0-.053-.018-.053a1.506,1.506,0,0,1-1.168-1.183,1.1,1.1,0,0,1,.034-.21c.246-.139.977-.557,1.221-.75.036-.035.018-.087-.016-.087a2.479,2.479,0,0,1-1.606-2.548,2.618,2.618,0,0,1,.96-2.041,3.87,3.87,0,0,1,2.042-.751A3.684,3.684,0,0,1,1043.065,361.363Zm1.065,9.039a1.331,1.331,0,0,0-.908-1.331,6.749,6.749,0,0,0-2.129-.331,1.153,1.153,0,0,0-.627.174,1.8,1.8,0,0,0-1,1.466,1.64,1.64,0,0,0,.629,1.291,2.66,2.66,0,0,0,1.8.559C1043.571,372.234,1044.13,371.361,1044.13,370.4Zm-4.259-6.962c0,1.291.592,2.514,1.763,2.514a1.118,1.118,0,0,0,.8-.314,2.349,2.349,0,0,0,.472-1.676c0-1.083-.444-2.425-1.8-2.425C1040.291,361.537,1039.871,362.357,1039.871,363.439Z" transform="translate(-975.951 -355.971)" fill="#fff"/>
        <path id="Path_66" data-name="Path 66" d="M1156.631,338.3c.3-.105.367-.315.367-.664.018-.924.018-2.9.035-4.88,0-.034-.035-.139-.07-.139l-.856-.036a.846.846,0,0,1,.123-.349,2.476,2.476,0,0,0,.75-.244.149.149,0,0,0,.071-.1c0-2.164.443-3.549,1.953-4.624a3.21,3.21,0,0,1,1.553-.627,1.453,1.453,0,0,1,1.309.627v.141a3.533,3.533,0,0,1-.576.837.134.134,0,0,1-.139.018,2.466,2.466,0,0,0-1.537-.819,1.052,1.052,0,0,0-.732.3c-.577.559-.629,2.07-.647,3.549,0,.105,0,.49.018.592,0,.016.035.1.07.1q1.387-.025,1.675-.052a4.721,4.721,0,0,0-.147.716c-.349,0-1.274-.035-1.553-.018-.018,0-.07.123-.07.139.017,1.816,0,3.993.035,4.852.017.418.175.611.506.68a4.147,4.147,0,0,0,.75.121.52.52,0,0,1-.034.279c-.472,0-1.065-.052-1.851-.052-.418,0-1.257.052-1.64.052-.036-.018-.036-.226,0-.279A5.7,5.7,0,0,0,1156.631,338.3Z" transform="translate(-1076.151 -326.624)" fill="#fff"/>
        <path id="Path_67" data-name="Path 67" d="M1210.981,361.79a10.444,10.444,0,0,0,2.286-.279,22.8,22.8,0,0,0-.087,3.264,10.539,10.539,0,0,0,.087,1.85,1.326,1.326,0,0,0,1.43,1.063,2.048,2.048,0,0,0,1.362-.506.708.708,0,0,0,.209-.488c.036-.331.018-3.072-.018-3.962a.5.5,0,0,0-.331-.506,8.073,8.073,0,0,0-1.1-.157.318.318,0,0,1,.036-.279,15.749,15.749,0,0,0,2.7-.262,16.684,16.684,0,0,0-.069,1.85l.018,3.455c0,.739.122.855.488.855a5.186,5.186,0,0,0,.541-.034c0,.034.018.262-.034.3-.629.174-1.729.541-2.13.7-.052,0-.1-.052-.1-.139-.018-.21,0-.7,0-1a.069.069,0,0,0-.038-.055.07.07,0,0,0-.067,0,3.611,3.611,0,0,1-2.251,1.1c-1.64,0-1.971-1.134-1.971-2.32,0-.821.018-2.635-.018-3.421-.018-.313-.034-.523-.244-.611a3.07,3.07,0,0,0-.75-.139A.465.465,0,0,1,1210.981,361.79Z" transform="translate(-1122.979 -356.346)" fill="#fff"/>
        <path id="Path_68" data-name="Path 68" d="M1293.653,349.959c-.034,0-.087.07-.087.105,0,.994-.016,2.9,0,3.664a3.542,3.542,0,0,0,.123,1.047.914.914,0,0,0,.924.611,1.57,1.57,0,0,0,.96-.28.942.942,0,0,1-.034.3,2.02,2.02,0,0,1-1.606.769,1.4,1.4,0,0,1-1.361-.74,4.4,4.4,0,0,1-.228-1.989c0-.926.018-2.653.018-3.351a.117.117,0,0,0-.069-.121c-.139-.035-.629-.053-.873-.07a3.188,3.188,0,0,1,.139-.42,5.814,5.814,0,0,0,.751-.139c.034-.018.052-.087.052-.105v-1.372a3.8,3.8,0,0,0,1.1-.873.434.434,0,0,1,.209.036,14.1,14.1,0,0,0-.105,2.181c0,.034.053.1.087.1a18.742,18.742,0,0,0,1.886-.07,4.885,4.885,0,0,0-.148.739C1294.858,349.977,1294.195,349.959,1293.653,349.959Z" transform="translate(-1191.57 -343.974)" fill="#fff"/>
        <path id="Path_69" data-name="Path 69" d="M1347.621,361.79a10.437,10.437,0,0,0,2.286-.279,22.829,22.829,0,0,0-.087,3.264,10.539,10.539,0,0,0,.087,1.85,1.327,1.327,0,0,0,1.43,1.063,2.049,2.049,0,0,0,1.362-.506.7.7,0,0,0,.208-.488c.036-.331.018-3.072-.016-3.962a.506.506,0,0,0-.333-.506,8.1,8.1,0,0,0-1.1-.157.317.317,0,0,1,.036-.279,15.757,15.757,0,0,0,2.7-.262,16.625,16.625,0,0,0-.07,1.85l.018,3.455c0,.739.123.855.49.855a5.169,5.169,0,0,0,.54-.034c0,.034.018.262-.034.3-.629.174-1.727.541-2.13.7-.051,0-.1-.052-.1-.139-.016-.21,0-.7,0-1a.069.069,0,0,0-.037-.055.068.068,0,0,0-.066,0,3.617,3.617,0,0,1-2.253,1.1c-1.64,0-1.971-1.134-1.971-2.32,0-.821.018-2.635-.018-3.421-.018-.313-.034-.523-.244-.611a3.073,3.073,0,0,0-.75-.139A.465.465,0,0,1,1347.621,361.79Z" transform="translate(-1239.412 -356.346)" fill="#fff"/>
        <path id="Path_70" data-name="Path 70" d="M1433.177,361.3a.635.635,0,0,1,0,.262,3.294,3.294,0,0,1-.524.942,1.1,1.1,0,0,1-.138.053,1.479,1.479,0,0,0-1.013-.472c-.365,0-.645.314-.888.716a1.794,1.794,0,0,0-.158.7c0,.994.018,3.036.053,3.385s.1.506.331.592a4.33,4.33,0,0,0,.909.139.318.318,0,0,1-.036.279c-.244,0-1.1-.052-1.763-.052-.471,0-1.379.034-1.674.052a.375.375,0,0,1,0-.279,3.227,3.227,0,0,0,.644-.121c.157-.069.262-.174.28-.49.052-.3.07-1.8.07-3.105a14.639,14.639,0,0,0-.035-1.466c-.016-.174-.07-.472-.855-.663,0-.053.018-.21.053-.228a6.04,6.04,0,0,0,1.972-.629c.017,0,.07.036.07.053-.018.313-.018,1.117-.018,1.448,0,.018.053.036.071.018a6.258,6.258,0,0,1,1.035-1.134,1.442,1.442,0,0,1,.888-.367A.846.846,0,0,1,1433.177,361.3Z" transform="translate(-1308.164 -355.835)" fill="#fff"/>
        <path id="Path_71" data-name="Path 71" d="M1495.837,366.566a.732.732,0,0,1-.035.3,3.889,3.889,0,0,1-2.723,1.361,2.685,2.685,0,0,1-2.041-.837,3.9,3.9,0,0,1-.908-2.662,3.424,3.424,0,0,1,1.5-3.054,3.976,3.976,0,0,1,1.775-.559c1.627,0,2.164,1.536,2.3,2.366.018.052.051.123.209.139.018.053-.016.21-.07.228a26.248,26.248,0,0,1-4.45.4c-.069,0-.1.1-.1.192a3.391,3.391,0,0,0,.645,1.923,2.341,2.341,0,0,0,1.922.887,2.54,2.54,0,0,0,1.9-.74C1495.784,366.509,1495.837,366.527,1495.837,366.566Zm-4.485-2.863c0,.053.035.105.051.105a22.875,22.875,0,0,0,2.949-.121.181.181,0,0,0,.1-.14c-.1-.887-.591-1.989-1.6-1.989-.785,0-1.432.747-1.5,2.143Z" transform="translate(-1360.894 -356.005)" fill="#fff"/>
        <path id="Path_72" data-name="Path 72" d="M1565.312,362.907c-.018.052-.244.052-.279.018-.087-.785-.244-1.183-.629-1.362a1.658,1.658,0,0,0-.767-.175,1.029,1.029,0,0,0-1.081,1.065c0,.592.191.978,1.466,1.627,1.414.714,1.727,1.238,1.727,2.041a2.27,2.27,0,0,1-2.53,2.058,4.908,4.908,0,0,1-1.727-.331,10.976,10.976,0,0,1-.21-1.815c.018-.052.21-.1.28-.069a2.174,2.174,0,0,0,1.065,1.676,1.686,1.686,0,0,0,.786.191,1.1,1.1,0,0,0,1.2-1.063c0-.645-.314-1-1.257-1.519-1.466-.768-1.849-1.361-1.849-2.233,0-1.047.819-1.955,2.366-1.955a5.763,5.763,0,0,1,1,.087,5.963,5.963,0,0,0,.628.069A10.054,10.054,0,0,0,1565.312,362.907Z" transform="translate(-1421.522 -355.962)" fill="#fff"/>
      </g>
    </g>
  </g>
</svg>
